{"docs":[{"id":96,"name":"ΧΑΝΙΩΝ","image":null,"level":"2","parent":{"id":11,"name":"Κρήτη","image":null,"level":"1","parent":null,"geoJSON":null,"updatedAt":"2026-02-09T16:59:37.841Z","createdAt":"2026-02-09T16:59:37.840Z"},"geoJSON":null,"updatedAt":"2026-05-02T23:21:46.542Z","createdAt":"2026-05-02T23:21:46.542Z"},{"id":95,"name":"ΡΕΘΥΜΝΟΥ","image":null,"level":"2","parent":{"id":11,"name":"Κρήτη","image":null,"level":"1","parent":null,"geoJSON":null,"updatedAt":"2026-02-09T16:59:37.841Z","createdAt":"2026-02-09T16:59:37.840Z"},"geoJSON":null,"updatedAt":"2026-05-02T23:21:46.156Z","createdAt":"2026-05-02T23:21:46.156Z"},{"id":94,"name":"ΛΑΣΙΘΙΟΥ","image":null,"level":"2","parent":{"id":11,"name":"Κρήτη","image":null,"level":"1","parent":null,"geoJSON":null,"updatedAt":"2026-02-09T16:59:37.841Z","createdAt":"2026-02-09T16:59:37.840Z"},"geoJSON":null,"updatedAt":"2026-05-02T23:21:45.769Z","createdAt":"2026-05-02T23:21:45.769Z"}],"hasNextPage":true,"hasPrevPage":false,"limit":3,"nextPage":2,"page":1,"pagingCounter":1,"prevPage":null,"totalDocs":87,"totalPages":29}